com/vladimir/khoma/springandangular/service/UserService.class
com/vladimir/khoma/springandangular/entity/Skill.class
com/vladimir/khoma/springandangular/controller/UserController.class
com/vladimir/khoma/springandangular/repository/SkillRepository.class
com/vladimir/khoma/springandangular/converter/SkillConverter.class
com/vladimir/khoma/springandangular/dto/SkillDto.class
com/vladimir/khoma/springandangular/repository/UserRepository.class
com/vladimir/khoma/springandangular/Application.class
com/vladimir/khoma/springandangular/utils/Constants.class
com/vladimir/khoma/springandangular/service/impl/UserServiceimpl.class
com/vladimir/khoma/springandangular/entity/User.class
com/vladimir/khoma/springandangular/controller/HomeController.class
com/vladimir/khoma/springandangular/converter/UserConverter.class
com/vladimir/khoma/springandangular/dto/UserDto.class
